<svg xmlns="http://www.w3.org/2000/svg" viewBox="0 0 140 140">
  <g>
    <rect x="14.3" y="12.43" width="94.6" height="115.02" rx="3.41" transform="translate(-10.59 10.99) rotate(-9.39)" fill="#f9423a"/>
    <g>
      <g>
        <polygon points="105.28 99.92 95.25 113.94 31.21 124.53 15.26 28.05 91.31 15.47 105.28 99.92" fill="#fff"/>
        <path d="M30,126.25,13.53,26.82l79-13.07,14.31,86.54-10.76,15-.61.1Zm-13-97L32.45,122.8l61.94-10.24,9.31-13L90.08,17.2Z" fill="#3b3a3c"/>
      </g>
      <polygon points="93.77 114.18 91.53 100.67 105.04 98.44 105.53 101.4 94.98 103.14 96.73 113.69 93.77 114.18" fill="#3b3a3c"/>
    </g>
    <g>
      <path d="M57.88,12.27a5.74,5.74,0,0,0-11.33,1.87L34.9,16.07,36.77,27.4l34.64-5.73L69.53,10.34Z" fill="#fff"/>
      <path d="M35.53,29.12,33.17,14.83,45,12.88a7.24,7.24,0,0,1,14-2.31l11.81-2L73.13,22.9ZM36.62,17.3,38,25.67l31.68-5.24L68.3,12.06,56.64,14l-.24-1.48A4.24,4.24,0,1,0,48,13.9l.24,1.48Z" fill="#3b3a3c"/>
    </g>
    <path d="M31,52.57a8,8,0,1,1,7.87-9.27h0a8,8,0,0,1-6.56,9.16A7.32,7.32,0,0,1,31,52.57Zm0-13.94a5.47,5.47,0,0,0-1,.08,6,6,0,1,0,1-.08Z" fill="#3b3a3c"/>
    <path d="M34.41,73.38a8,8,0,1,1,1.32-.11A7.35,7.35,0,0,1,34.41,73.38Zm0-13.94a5.51,5.51,0,0,0-1,.08,6,6,0,1,0,6.87,4.92h0a6,6,0,0,0-5.88-5Z" fill="#3b3a3c"/>
    <path d="M37.87,94.19a8,8,0,1,1,7.86-9.27h0a8,8,0,0,1-6.56,9.17A8.22,8.22,0,0,1,37.87,94.19Zm0-13.94a6.35,6.35,0,0,0-1,.08,6,6,0,1,0,1-.08Z" fill="#3b3a3c"/>
    <path d="M41.29,115a8,8,0,1,1,1.32-.11A8.4,8.4,0,0,1,41.29,115Zm0-14a6.61,6.61,0,0,0-1,.08,6,6,0,0,0-2.5,10.75,6,6,0,0,0,9.36-5.83h0a6,6,0,0,0-5.87-5Z" fill="#3b3a3c"/>
    <path d="M30.67,47a1,1,0,0,1-.58-.19l-1.82-1.3a1,1,0,0,1,1.16-1.63l1,.72L32,42.36a1,1,0,0,1,1.4-.23,1,1,0,0,1,.23,1.39l-2.19,3.06a1,1,0,0,1-.65.4Z" fill="#3b3a3c"/>
    <path d="M34.11,67.81a1,1,0,0,1-.58-.19l-1.82-1.3a1,1,0,0,1-.23-1.39,1,1,0,0,1,1.4-.24l1,.72,1.61-2.24a1,1,0,1,1,1.62,1.17l-2.18,3a1,1,0,0,1-.65.41Z" fill="#3b3a3c"/>
    <g>
      <path d="M36.3,89.41a1,1,0,0,1-.58-.19,1,1,0,0,1-.23-1.39l3.13-4.38a1,1,0,1,1,1.63,1.17L37.12,89A1,1,0,0,1,36.3,89.41Z" fill="#3b3a3c"/>
      <path d="M40.06,88.79a1,1,0,0,1-.59-.19L35.1,85.47a1,1,0,0,1,1.17-1.63L40.64,87a1,1,0,0,1-.58,1.82Z" fill="#3b3a3c"/>
    </g>
    <path d="M41,109.43a.94.94,0,0,1-.58-.19l-1.82-1.3a1,1,0,0,1,1.16-1.62l1,.72,1.6-2.25a1,1,0,0,1,1.4-.23A1,1,0,0,1,44,106L41.81,109a1,1,0,0,1-.65.41Z" fill="#3b3a3c"/>
    <path d="M40.18,40.54a1,1,0,0,1-.16-2L79.85,32a1,1,0,1,1,.32,2L40.34,40.52Z" fill="#3b3a3c"/>
    <path d="M41.05,45.83a1,1,0,0,1-.16-2L57.83,41a1,1,0,0,1,.32,2l-16.93,2.8Z" fill="#3b3a3c"/>
    <g>
      <path d="M43.75,62.15a1,1,0,0,1-.16-2l39.83-6.59a1,1,0,0,1,.33,2L43.92,62.14Z" fill="#3b3a3c"/>
      <path d="M44.63,67.44a1,1,0,0,1-1-.84,1,1,0,0,1,.83-1.15L65,62.06a1,1,0,1,1,.32,2l-20.54,3.4Z" fill="#3b3a3c"/>
    </g>
    <g>
      <path d="M47.2,83A1,1,0,0,1,47,81l37.42-6.19a1,1,0,0,1,.33,2L47.36,83Z" fill="#3b3a3c"/>
      <path d="M48.07,88.25a1,1,0,0,1-.16-2l29.35-4.86a1,1,0,1,1,.32,2L48.24,88.24Z" fill="#3b3a3c"/>
    </g>
    <g>
      <path d="M50.64,103.77a1,1,0,0,1-1-.84,1,1,0,0,1,.83-1.15l21.84-3.61a1,1,0,1,1,.32,2L50.8,103.76Z" fill="#3b3a3c"/>
      <path d="M51.52,109.06a1,1,0,0,1-.17-2l27.9-4.62a1,1,0,0,1,.33,2l-27.9,4.62Z" fill="#3b3a3c"/>
    </g>
    <g>
      <path d="M117.05,103.58,113.44,108a.86.86,0,0,1-1.49-.29l-1.73-5.3,14.06-81.29a1.58,1.58,0,0,1,1.82-1.28l3.73.65a1.56,1.56,0,0,1,1.28,1.81Z" fill="#fff"/>
      <path d="M112.77,109.8a2.25,2.25,0,0,1-.44,0,2.37,2.37,0,0,1-1.81-1.59l-1.84-5.66.06-.37L122.8,20.86a3.08,3.08,0,0,1,3.55-2.51l3.74.65a3.08,3.08,0,0,1,2.5,3.55l-14.13,81.68-3.86,4.71A2.37,2.37,0,0,1,112.77,109.8Zm-1-7.51,1.25,3.85,2.63-3.2,14-80.9-3.79-.73Z" fill="#3b3a3c"/>
    </g>
  </g>
</svg>
