<svg xmlns="http://www.w3.org/2000/svg" viewBox="0 0 140 140">
  <g>
    <path d="M85.33,116H55.06a5.71,5.71,0,0,1,0-11.41H85.33a5.71,5.71,0,1,1,0,11.41Zm-30.27-8.41a2.71,2.71,0,0,0,0,5.41H85.33a2.71,2.71,0,1,0,0-5.41Z" fill="#3b3a3c"/>
    <path d="M82.05,124.4H58.35a5.29,5.29,0,0,1-5.28-5.28v-.85A5.29,5.29,0,0,1,58.35,113h23.7a5.29,5.29,0,0,1,5.28,5.29v.85A5.29,5.29,0,0,1,82.05,124.4ZM58.35,116a2.29,2.29,0,0,0-2.28,2.29v.85a2.28,2.28,0,0,0,2.28,2.28h23.7a2.29,2.29,0,0,0,2.28-2.28v-.85A2.29,2.29,0,0,0,82.05,116Z" fill="#3b3a3c"/>
    <path d="M70.2,130.09A7.2,7.2,0,0,1,63,122.9h3a4.19,4.19,0,0,0,8.38,0h3A7.2,7.2,0,0,1,70.2,130.09Z" fill="#3b3a3c"/>
    <path d="M84.77,107.57H55.23a8.08,8.08,0,0,1-8.07-8.07V93.7a6.85,6.85,0,0,0-2.16-5,36.78,36.78,0,1,1,50,0,6.8,6.8,0,0,0-2.13,5v5.8A8.08,8.08,0,0,1,84.77,107.57ZM70,27.93c-.81,0-1.62,0-2.43.08A33.78,33.78,0,0,0,47,86.48a9.87,9.87,0,0,1,3.12,7.22v5.8a5.08,5.08,0,0,0,5.07,5.07H84.77a5.08,5.08,0,0,0,5.07-5.07V93.7a9.82,9.82,0,0,1,3.09-7.19A33.77,33.77,0,0,0,93,37,33.41,33.41,0,0,0,70,27.93Z" fill="#3b3a3c"/>
    <g>
      <path d="M25,71.5H14.16a1.5,1.5,0,1,1,0-3H25a1.5,1.5,0,1,1,0,3Z" fill="#3b3a3c"/>
      <path d="M125.84,71.5H115a1.5,1.5,0,0,1,0-3h10.8a1.5,1.5,0,0,1,0,3Z" fill="#3b3a3c"/>
    </g>
    <path d="M73.29,41.18l2,5.62,4.51,1.87,5.39-2.56,4.37,4.38L87,55.88l1.87,4.5,5.62,2v6.19l-5.62,2L87,75.08l2.56,5.38-4.37,4.38L79.8,82.28l-4.51,1.87-2,5.62H67.1l-2-5.62-4.5-1.87-5.39,2.56-4.38-4.38,2.56-5.38-1.86-4.51-5.62-2V62.38l5.62-2,1.86-4.5-2.56-5.39,4.38-4.38,5.39,2.56,4.5-1.87,2-5.62ZM70,56.49a9,9,0,1,0,9,9A9,9,0,0,0,70,56.49Z" fill="#f9423a"/>
    <g>
      <path d="M32.31,34.15a1.47,1.47,0,0,1-1.09-.48l-3.95-4.22a1.5,1.5,0,1,1,2.19-2.05l3.95,4.22a1.51,1.51,0,0,1-1.1,2.53Z" fill="#3b3a3c"/>
      <path d="M107.69,34.15a1.51,1.51,0,0,1-1.1-2.53l4-4.22a1.5,1.5,0,0,1,2.19,2.05l-4,4.22A1.47,1.47,0,0,1,107.69,34.15Z" fill="#3b3a3c"/>
    </g>
    <path d="M70,20.36a1.5,1.5,0,0,1-1.5-1.5V8a1.5,1.5,0,1,1,3,0V18.86A1.5,1.5,0,0,1,70,20.36Z" fill="#3b3a3c"/>
    <path d="M76.69,115.14H61a1,1,0,0,1,0-2H76.69a1,1,0,0,1,0,2Z" fill="#3b3a3c"/>
    <path d="M74.9,123.2H67.28a1,1,0,0,1,0-2H74.9a1,1,0,0,1,0,2Z" fill="#3b3a3c"/>
  </g>
</svg>
