<svg xmlns="http://www.w3.org/2000/svg" viewBox="0 0 140 140">
  <g>
    <path d="M70,105.72A1.51,1.51,0,0,1,69,105.3l-16.37-16H20.11A11,11,0,0,1,9.24,78.42V27A11,11,0,0,1,20.17,16h99.88A11.07,11.07,0,0,1,131,27V78.41a11,11,0,0,1-11,10.94H87.24L71.09,105.29A1.48,1.48,0,0,1,70,105.72ZM53.23,86.35a1.52,1.52,0,0,1,1.05.42L70,102.12,85.57,86.78a1.49,1.49,0,0,1,1.06-.43H120A8,8,0,0,0,128,78.42V27A8.07,8.07,0,0,0,120,19H20.18A8,8,0,0,0,12.24,27V78.41a7.86,7.86,0,0,0,7.88,7.94H53.23Z" fill="#3b3a3c"/>
    <path d="M37.8,38.93l2.54,5.18A2.22,2.22,0,0,0,42,45.32l5.71.84a2.2,2.2,0,0,1,1.21,3.76l-4.14,4a2.22,2.22,0,0,0-.64,2l1,5.69a2.2,2.2,0,0,1-3.2,2.31l-5.1-2.69a2.22,2.22,0,0,0-2,0l-5.12,2.68a2.2,2.2,0,0,1-3.18-2.33l1-5.69a2.21,2.21,0,0,0-.62-2l-4.13-4a2.2,2.2,0,0,1,1.23-3.75l5.71-.81a2.18,2.18,0,0,0,1.66-1.2l2.57-5.17A2.2,2.2,0,0,1,37.8,38.93Z" fill="#f9423a"/>
    <path d="M72.3,38.93l2.54,5.18a2.22,2.22,0,0,0,1.66,1.21l5.71.84a2.2,2.2,0,0,1,1.21,3.76l-4.14,4a2.22,2.22,0,0,0-.64,2l1,5.69a2.2,2.2,0,0,1-3.2,2.31l-5.1-2.69a2.22,2.22,0,0,0-2,0l-5.11,2.68A2.2,2.2,0,0,1,61,61.53l1-5.69a2.21,2.21,0,0,0-.63-2l-4.12-4a2.2,2.2,0,0,1,1.23-3.75l5.71-.81a2.18,2.18,0,0,0,1.66-1.2l2.57-5.17A2.19,2.19,0,0,1,72.3,38.93Z" fill="#f9423a"/>
    <path d="M106.81,38.93l2.54,5.18A2.22,2.22,0,0,0,111,45.32l5.71.84a2.2,2.2,0,0,1,1.21,3.76l-4.14,4a2.22,2.22,0,0,0-.64,2l1,5.69a2.2,2.2,0,0,1-3.2,2.31l-5.1-2.69a2.22,2.22,0,0,0-2,0l-5.12,2.68a2.2,2.2,0,0,1-3.18-2.33l1-5.69a2.24,2.24,0,0,0-.63-2l-4.13-4a2.2,2.2,0,0,1,1.23-3.75l5.72-.81a2.18,2.18,0,0,0,1.65-1.2l2.57-5.17A2.2,2.2,0,0,1,106.81,38.93Z" fill="#f9423a"/>
    <path d="M70.15,125.55H70a8.6,8.6,0,0,1-8.43-8.74,8.59,8.59,0,0,1,8.73-8.43,8.59,8.59,0,0,1-.14,17.17Zm0-14.17a5.6,5.6,0,0,0-5.58,5.49,5.6,5.6,0,0,0,5.49,5.68h.09a5.59,5.59,0,0,0,.1-11.17Z" fill="#3b3a3c"/>
  </g>
</svg>
